{
    "version": "7.0.0-*",
    "description":  "Entity Framework is Microsoft's recommended data access technology for new applications.",
    "compilationOptions": {
        "warningsAsErrors": true
    },
    "dependencies": {
        "Ix-Async": "1.2.3-beta",
        "Microsoft.Framework.Logging": "1.0.0-*",
        "Microsoft.Framework.OptionsModel": "1.0.0-*",
        "Remotion.Linq": "1.15.15",
        "System.Collections.Immutable": "1.1.32-beta"
    },
    "code": [ "**\\*.cs", "..\\Shared\\*.cs" ],
    "frameworks": {
        "net45": {
            "frameworkAssemblies": {
                "System.Collections": { "version": "", "type": "build" },
                "System.Diagnostics.Debug": { "version": "", "type": "build" },
                "System.Diagnostics.Tools": { "version": "", "type": "build" },
                "System.Globalization": { "version": "", "type": "build" },
                "System.Linq": { "version": "", "type": "build" },
                "System.Linq.Expressions": { "version": "", "type": "build" },
                "System.Linq.Queryable": { "version": "", "type": "build" },
                "System.ObjectModel": { "version": "", "type": "build" },
                "System.Reflection": { "version": "", "type": "build" },
                "System.Reflection.Extensions": { "version": "", "type": "build" },
                "System.Resources.ResourceManager": { "version": "", "type": "build" },
                "System.Runtime": { "version": "", "type": "build" },
                "System.Runtime.Extensions": { "version": "", "type": "build" },
                "System.Runtime.InteropServices": { "version": "", "type": "build" },
                "System.Threading": { "version": "", "type": "build" }
            }
        },
        "aspnet50": {
            "frameworkAssemblies": {
                "System.Collections": "",
                "System.Diagnostics.Debug": "",
                "System.Diagnostics.Tools": "",
                "System.Globalization": "",
                "System.Linq": "",
                "System.Linq.Expressions": "",
                "System.Linq.Queryable": "",
                "System.ObjectModel": "",
                "System.Reflection": "",
                "System.Reflection.Extensions": "",
                "System.Resources.ResourceManager": "",
                "System.Runtime": "",
                "System.Runtime.Extensions": "",
                "System.Runtime.InteropServices": "",
                "System.Threading": ""
            }
        },
        "aspnetcore50": {
            "dependencies": {
                "System.Diagnostics.Contracts": "4.0.0-beta-*",
                "System.Linq.Queryable": "4.0.0-beta-*",
                "System.ObjectModel": "4.0.10-beta-*",
                "System.Reflection.Extensions": "4.0.0-beta-*"
            }
        },
        ".NETPortable,Version=v4.6,Profile=Profile151": {
            "frameworkAssemblies": {
                "System.Diagnostics.Contracts": "",
                "System.Linq.Queryable": "",
                "System.ObjectModel": "",
                "System.Reflection.Extensions": ""
            }
        }
    }
}
